[gd_scene load_steps=4 format=3 uid="uid://b2iabga2oerut"]

[sub_resource type="BoxMesh" id="BoxMesh_7j7r1"]

[sub_resource type="SphereMesh" id="SphereMesh_fn0gs"]

[sub_resource type="StandardMaterial3D" id="StandardMaterial3D_xq0og"]
albedo_color = Color(0.188235, 1, 1, 1)

[node name="Node3D" type="Node3D"]

[node name="Camera3D" type="Camera3D" parent="."]
transform = Transform3D(0.672052, -0.355089, 0.649813, -0.0581523, 0.849511, 0.524356, -0.738217, -0.390183, 0.550267, 2.65572, 4.13683, 4.08374)
h_offset = 4.715
projection = 1
current = true
size = 7.59
far = 100.0

[node name="plane" type="MeshInstance3D" parent="."]
transform = Transform3D(14.81, 0, 0, 0, 0.565, 0, 0, 0, 14.02, 0, 0, 0)
mesh = SubResource("BoxMesh_7j7r1")

[node name="cube1" type="MeshInstance3D" parent="."]
transform = Transform3D(1, 0, 0, 0, 1, 0, 0, 0, 1, -1.34036, 0.794053, 0.237937)
mesh = SubResource("BoxMesh_7j7r1")

[node name="cube2" type="MeshInstance3D" parent="."]
transform = Transform3D(1, 0, 0, 0, 1, 0, 0, 0, 1, 2.03642, 0.766434, -1.58961)
mesh = SubResource("BoxMesh_7j7r1")

[node name="cube3" type="MeshInstance3D" parent="."]
transform = Transform3D(2.04, 0, 0, 0, 1, 0, 0, 0, 1.4, 0.518827, 2.0477, -0.349329)
mesh = SubResource("BoxMesh_7j7r1")

[node name="cube4" type="MeshInstance3D" parent="."]
transform = Transform3D(2.43199, 0, 0, 0, 1.19215, 0, 0, 0, 1.66901, -2.38187, 2.05603, 0.602286)
mesh = SubResource("SphereMesh_fn0gs")
surface_material_override/0 = SubResource("StandardMaterial3D_xq0og")

[node name="SpotLight3D" type="DirectionalLight3D" parent="."]
transform = Transform3D(0.86359, -0.327658, -0.383212, 0.269516, -0.342348, 0.900088, -0.426113, -0.880589, -0.207339, 1.97404, 9.26202, -1.47128)
shadow_enabled = true
