[gd_resource type="ArrayMesh" load_steps=4 format=3 uid="uid://dma6q03b0ve88"]

[ext_resource type="Texture2D" uid="uid://ctl0ifnequmpx" path="res://texture.png" id="1_34q8l"]

[sub_resource type="StandardMaterial3D" id="StandardMaterial3D_n407a"]
resource_name = "m_4f30849b-66b6-b9bf-779c-d0a846e5d600"
albedo_texture = ExtResource("1_34q8l")

[sub_resource type="StandardMaterial3D" id="StandardMaterial3D_0dxuf"]
resource_name = "m_629645eb-61b4-1f15-97be-6e6790847d7a"
albedo_texture = ExtResource("1_34q8l")

[resource]
_surfaces = [{
"aabb": AABB(-0.14474, 0.137688, -0.13796, 0.2875, 0.32501, 0.275),
"attribute_data": PackedByteArray(255, 103, 255, 135, 255, 111, 255, 135, 255, 103, 255, 143, 255, 111, 255, 143, 255, 127, 255, 135, 255, 127, 255, 143, 255, 119, 255, 135, 255, 119, 255, 143, 255, 143, 255, 95, 255, 127, 255, 95, 255, 143, 255, 87, 255, 127, 255, 87, 255, 151, 0, 0, 255, 151, 255, 7, 255, 135, 0, 0, 255, 135, 255, 7, 255, 151, 255, 15, 255, 151, 255, 23, 255, 135, 255, 15, 255, 135, 255, 23, 255, 31, 255, 135, 255, 47, 255, 135, 255, 31, 255, 143, 255, 47, 255, 143, 255, 47, 255, 79, 255, 87, 255, 79, 255, 47, 255, 95, 255, 87, 255, 95, 255, 127, 0, 0, 255, 127, 255, 15, 255, 87, 0, 0, 255, 87, 255, 15, 255, 39, 255, 39, 0, 0, 255, 39, 255, 39, 0, 0, 0, 0, 0, 0, 255, 39, 255, 47, 255, 39, 255, 87, 0, 0, 255, 47, 0, 0, 255, 87, 255, 127, 255, 23, 255, 127, 255, 39, 255, 87, 255, 23, 255, 87, 255, 39, 255, 87, 255, 47, 255, 127, 255, 47, 255, 87, 255, 63, 255, 127, 255, 63, 255, 31, 255, 103, 255, 63, 255, 103, 255, 31, 255, 111, 255, 63, 255, 111, 255, 103, 255, 103, 255, 103, 255, 111, 255, 71, 255, 103, 255, 71, 255, 111, 255, 79, 255, 31, 255, 47, 255, 31, 255, 79, 0, 0, 255, 47, 0, 0, 255, 79, 255, 39, 255, 79, 255, 71, 255, 47, 255, 39, 255, 47, 255, 71, 255, 143, 255, 103, 255, 143, 255, 111, 255, 111, 255, 103, 255, 111, 255, 111, 255, 31, 255, 119, 255, 63, 255, 119, 255, 31, 255, 127, 255, 63, 255, 127, 255, 71, 255, 119, 255, 95, 255, 119, 255, 71, 255, 127, 255, 95, 255, 127, 255, 127, 255, 119, 255, 127, 255, 127, 255, 103, 255, 119, 255, 103, 255, 127, 255, 23, 255, 119, 0, 0, 255, 119, 255, 23, 255, 95, 0, 0, 255, 95, 255, 119, 255, 71, 255, 119, 255, 95, 255, 95, 255, 71, 255, 95, 255, 95, 255, 23, 255, 127, 255, 23, 255, 135, 0, 0, 255, 127, 0, 0, 255, 135, 255, 127, 255, 71, 255, 151, 255, 71, 255, 127, 255, 79, 255, 151, 255, 79, 255, 135, 255, 119, 255, 143, 255, 119, 255, 135, 255, 127, 255, 143, 255, 127, 255, 143, 255, 135, 255, 143, 255, 143, 255, 135, 255, 135, 255, 135, 255, 143, 255, 151, 255, 39, 255, 135, 255, 39, 255, 151, 255, 31, 255, 135, 255, 31, 255, 151, 255, 47, 255, 151, 255, 55, 255, 135, 255, 47, 255, 135, 255, 55, 255, 71, 255, 135, 255, 71, 255, 143, 255, 55, 255, 135, 255, 55, 255, 143, 255, 79, 255, 135, 255, 95, 255, 135, 255, 79, 255, 143, 255, 95, 255, 143),
"format": 34896613399,
"index_count": 180,
"index_data": PackedByteArray(0, 0, 1, 0, 2, 0, 2, 0, 1, 0, 3, 0, 4, 0, 5, 0, 6, 0, 6, 0, 5, 0, 7, 0, 8, 0, 9, 0, 10, 0, 10, 0, 9, 0, 11, 0, 12, 0, 13, 0, 14, 0, 14, 0, 13, 0, 15, 0, 16, 0, 17, 0, 18, 0, 18, 0, 17, 0, 19, 0, 20, 0, 21, 0, 22, 0, 22, 0, 21, 0, 23, 0, 24, 0, 25, 0, 26, 0, 26, 0, 25, 0, 27, 0, 28, 0, 29, 0, 30, 0, 30, 0, 29, 0, 31, 0, 32, 0, 33, 0, 34, 0, 34, 0, 33, 0, 35, 0, 36, 0, 37, 0, 38, 0, 38, 0, 37, 0, 39, 0, 40, 0, 41, 0, 42, 0, 42, 0, 41, 0, 43, 0, 44, 0, 45, 0, 46, 0, 46, 0, 45, 0, 47, 0, 48, 0, 49, 0, 50, 0, 50, 0, 49, 0, 51, 0, 52, 0, 53, 0, 54, 0, 54, 0, 53, 0, 55, 0, 56, 0, 57, 0, 58, 0, 58, 0, 57, 0, 59, 0, 60, 0, 61, 0, 62, 0, 62, 0, 61, 0, 63, 0, 64, 0, 65, 0, 66, 0, 66, 0, 65, 0, 67, 0, 68, 0, 69, 0, 70, 0, 70, 0, 69, 0, 71, 0, 72, 0, 73, 0, 74, 0, 74, 0, 73, 0, 75, 0, 76, 0, 77, 0, 78, 0, 78, 0, 77, 0, 79, 0, 80, 0, 81, 0, 82, 0, 82, 0, 81, 0, 83, 0, 84, 0, 85, 0, 86, 0, 86, 0, 85, 0, 87, 0, 88, 0, 89, 0, 90, 0, 90, 0, 89, 0, 91, 0, 92, 0, 93, 0, 94, 0, 94, 0, 93, 0, 95, 0, 96, 0, 97, 0, 98, 0, 98, 0, 97, 0, 99, 0, 100, 0, 101, 0, 102, 0, 102, 0, 101, 0, 103, 0, 104, 0, 105, 0, 106, 0, 106, 0, 105, 0, 107, 0, 108, 0, 109, 0, 110, 0, 110, 0, 109, 0, 111, 0, 112, 0, 113, 0, 114, 0, 114, 0, 113, 0, 115, 0, 116, 0, 117, 0, 118, 0, 118, 0, 117, 0, 119, 0),
"material": SubResource("StandardMaterial3D_n407a"),
"name": "m_629645eb-61b4-1f15-97be-6e6790847d7a",
"primitive": 3,
"uv_scale": Vector4(0, 0, 0, 0),
"vertex_count": 120,
"vertex_data": PackedByteArray(177, 144, 252, 255, 162, 139, 176, 199, 177, 144, 252, 255, 92, 116, 176, 199, 132, 172, 75, 236, 185, 168, 176, 199, 132, 172, 75, 236, 69, 87, 176, 199, 77, 111, 252, 255, 162, 139, 176, 199, 122, 83, 75, 236, 185, 168, 176, 199, 77, 111, 252, 255, 92, 116, 176, 199, 122, 83, 75, 236, 69, 87, 176, 199, 177, 144, 252, 255, 162, 139, 255, 191, 77, 111, 252, 255, 162, 139, 255, 191, 177, 144, 252, 255, 92, 116, 255, 191, 77, 111, 252, 255, 92, 116, 255, 191, 132, 172, 75, 236, 185, 168, 255, 191, 132, 172, 75, 236, 69, 87, 255, 191, 122, 83, 75, 236, 185, 168, 255, 191, 122, 83, 75, 236, 69, 87, 255, 191, 177, 144, 252, 255, 162, 139, 129, 164, 132, 172, 75, 236, 185, 168, 129, 164, 77, 111, 252, 255, 162, 139, 129, 164, 122, 83, 75, 236, 185, 168, 129, 164, 177, 144, 252, 255, 92, 116, 255, 255, 77, 111, 252, 255, 92, 116, 255, 255, 132, 172, 75, 236, 69, 87, 255, 255, 122, 83, 75, 236, 69, 87, 255, 255, 255, 255, 214, 137, 255, 255, 219, 192, 255, 255, 214, 137, 0, 0, 219, 192, 154, 222, 97, 39, 22, 221, 219, 192, 154, 222, 97, 39, 232, 34, 219, 192, 0, 0, 214, 137, 255, 255, 219, 192, 100, 33, 97, 39, 22, 221, 219, 192, 0, 0, 214, 137, 0, 0, 219, 192, 100, 33, 97, 39, 232, 34, 219, 192, 255, 255, 214, 137, 255, 255, 255, 191, 0, 0, 214, 137, 255, 255, 255, 191, 255, 255, 214, 137, 0, 0, 255, 191, 0, 0, 214, 137, 0, 0, 255, 191, 154, 222, 97, 39, 22, 221, 255, 191, 154, 222, 97, 39, 232, 34, 255, 191, 100, 33, 97, 39, 22, 221, 255, 191, 100, 33, 97, 39, 232, 34, 255, 191, 255, 255, 214, 137, 255, 255, 223, 139, 154, 222, 97, 39, 22, 221, 223, 139, 0, 0, 214, 137, 255, 255, 223, 139, 100, 33, 97, 39, 22, 221, 223, 139, 255, 255, 214, 137, 0, 0, 255, 255, 0, 0, 214, 137, 0, 0, 255, 255, 154, 222, 97, 39, 232, 34, 255, 255, 100, 33, 97, 39, 232, 34, 255, 255, 188, 233, 17, 187, 185, 232, 219, 192, 188, 233, 17, 187, 69, 23, 219, 192, 110, 250, 214, 137, 45, 250, 219, 192, 110, 250, 214, 137, 209, 5, 219, 192, 66, 22, 17, 187, 185, 232, 219, 192, 144, 5, 214, 137, 45, 250, 219, 192, 66, 22, 17, 187, 69, 23, 219, 192, 144, 5, 214, 137, 209, 5, 219, 192, 188, 233, 17, 187, 185, 232, 255, 191, 66, 22, 17, 187, 185, 232, 255, 191, 188, 233, 17, 187, 69, 23, 255, 191, 66, 22, 17, 187, 69, 23, 255, 191, 110, 250, 214, 137, 45, 250, 255, 191, 110, 250, 214, 137, 209, 5, 255, 191, 144, 5, 214, 137, 45, 250, 255, 191, 144, 5, 214, 137, 209, 5, 255, 191, 188, 233, 17, 187, 185, 232, 223, 139, 110, 250, 214, 137, 45, 250, 223, 139, 66, 22, 17, 187, 185, 232, 223, 139, 144, 5, 214, 137, 45, 250, 223, 139, 188, 233, 17, 187, 69, 23, 255, 255, 66, 22, 17, 187, 69, 23, 255, 255, 110, 250, 214, 137, 209, 5, 255, 255, 144, 5, 214, 137, 209, 5, 255, 255, 54, 189, 75, 236, 45, 186, 38, 194, 54, 189, 75, 236, 209, 69, 38, 194, 10, 217, 17, 187, 68, 215, 38, 194, 10, 217, 17, 187, 186, 40, 38, 194, 200, 66, 75, 236, 45, 186, 38, 194, 244, 38, 17, 187, 68, 215, 38, 194, 200, 66, 75, 236, 209, 69, 38, 194, 244, 38, 17, 187, 186, 40, 38, 194, 54, 189, 75, 236, 45, 186, 255, 191, 200, 66, 75, 236, 45, 186, 255, 191, 54, 189, 75, 236, 209, 69, 255, 191, 200, 66, 75, 236, 209, 69, 255, 191, 10, 217, 17, 187, 68, 215, 255, 191, 10, 217, 17, 187, 186, 40, 255, 191, 244, 38, 17, 187, 68, 215, 255, 191, 244, 38, 17, 187, 186, 40, 255, 191, 54, 189, 75, 236, 45, 186, 227, 146, 10, 217, 17, 187, 68, 215, 227, 146, 200, 66, 75, 236, 45, 186, 227, 146, 244, 38, 17, 187, 68, 215, 227, 146, 54, 189, 75, 236, 209, 69, 255, 255, 200, 66, 75, 236, 209, 69, 255, 255, 10, 217, 17, 187, 186, 40, 255, 255, 244, 38, 17, 187, 186, 40, 255, 255, 166, 183, 97, 39, 92, 180, 154, 192, 166, 183, 97, 39, 162, 75, 154, 192, 132, 172, 0, 0, 185, 168, 154, 192, 132, 172, 0, 0, 69, 87, 154, 192, 88, 72, 97, 39, 92, 180, 154, 192, 122, 83, 0, 0, 185, 168, 154, 192, 88, 72, 97, 39, 162, 75, 154, 192, 122, 83, 0, 0, 69, 87, 154, 192, 166, 183, 97, 39, 92, 180, 255, 191, 88, 72, 97, 39, 92, 180, 255, 191, 166, 183, 97, 39, 162, 75, 255, 191, 88, 72, 97, 39, 162, 75, 255, 191, 132, 172, 0, 0, 185, 168, 255, 191, 132, 172, 0, 0, 69, 87, 255, 191, 122, 83, 0, 0, 185, 168, 255, 191, 122, 83, 0, 0, 69, 87, 255, 191, 166, 183, 97, 39, 92, 180, 250, 137, 132, 172, 0, 0, 185, 168, 250, 137, 88, 72, 97, 39, 92, 180, 250, 137, 122, 83, 0, 0, 185, 168, 250, 137, 166, 183, 97, 39, 162, 75, 255, 255, 88, 72, 97, 39, 162, 75, 255, 255, 132, 172, 0, 0, 69, 87, 255, 255, 122, 83, 0, 0, 69, 87, 255, 255, 187, 190, 94, 31, 187, 190, 94, 31, 187, 190, 94, 31, 187, 190, 94, 31, 93, 159, 66, 193, 93, 159, 66, 193, 93, 159, 66, 193, 93, 159, 66, 193, 255, 255, 255, 127, 255, 255, 255, 127, 255, 255, 255, 127, 255, 255, 255, 127, 0, 0, 255, 127, 0, 0, 255, 127, 0, 0, 255, 127, 0, 0, 255, 127, 255, 255, 255, 127, 255, 255, 255, 127, 255, 255, 255, 127, 255, 255, 255, 127, 255, 127, 114, 214, 255, 127, 114, 214, 255, 127, 114, 214, 255, 127, 114, 214, 121, 113, 11, 29, 121, 113, 11, 29, 121, 113, 11, 29, 121, 113, 11, 29, 243, 98, 121, 241, 243, 98, 121, 241, 243, 98, 121, 241, 243, 98, 121, 241, 255, 255, 255, 127, 255, 255, 255, 127, 255, 255, 255, 127, 255, 255, 255, 127, 0, 0, 255, 127, 0, 0, 255, 127, 0, 0, 255, 127, 0, 0, 255, 127, 0, 0, 255, 127, 0, 0, 255, 127, 0, 0, 255, 127, 0, 0, 255, 127, 97, 144, 255, 255, 97, 144, 255, 255, 97, 144, 255, 255, 97, 144, 255, 255, 11, 157, 133, 14, 11, 157, 133, 14, 11, 157, 133, 14, 11, 157, 133, 14, 133, 142, 243, 226, 133, 142, 243, 226, 133, 142, 243, 226, 133, 142, 243, 226, 255, 255, 255, 127, 255, 255, 255, 127, 255, 255, 255, 127, 255, 255, 255, 127, 0, 0, 255, 127, 0, 0, 255, 127, 0, 0, 255, 127, 0, 0, 255, 127, 255, 255, 255, 127, 255, 255, 255, 127, 255, 255, 255, 127, 255, 255, 255, 127, 255, 127, 157, 239, 255, 127, 157, 239, 255, 127, 157, 239, 255, 127, 157, 239, 12, 169, 134, 20, 12, 169, 134, 20, 12, 169, 134, 20, 12, 169, 134, 20, 134, 148, 241, 214, 134, 148, 241, 214, 134, 148, 241, 214, 134, 148, 241, 214, 255, 255, 255, 127, 255, 255, 255, 127, 255, 255, 255, 127, 255, 255, 255, 127, 0, 0, 255, 127, 0, 0, 255, 127, 0, 0, 255, 127, 0, 0, 255, 127, 255, 255, 255, 127, 255, 255, 255, 127, 255, 255, 255, 127, 255, 255, 255, 127, 255, 127, 140, 231, 255, 127, 140, 231, 255, 127, 140, 231, 255, 127, 140, 231, 90, 115, 73, 25, 90, 115, 73, 25, 90, 115, 73, 25, 90, 115, 73, 25, 181, 102, 90, 243, 181, 102, 90, 243, 181, 102, 90, 243, 181, 102, 90, 243, 255, 255, 255, 127, 255, 255, 255, 127, 255, 255, 255, 127, 255, 255, 255, 127, 0, 0, 255, 127, 0, 0, 255, 127, 0, 0, 255, 127, 0, 0, 255, 127, 0, 0, 255, 127, 0, 0, 255, 127, 0, 0, 255, 127, 0, 0, 255, 127, 7, 142, 255, 255, 7, 142, 255, 255, 7, 142, 255, 255, 7, 142, 255, 255)
}, {
"aabb": AABB(-0.0994189, 0.000187956, -0.0285847, 0.202406, 0.198426, 0.0703959),
"attribute_data": PackedByteArray(255, 63, 255, 15, 255, 63, 255, 31, 255, 47, 255, 15, 255, 47, 255, 31, 255, 63, 255, 31, 255, 63, 255, 47, 255, 47, 255, 31, 255, 47, 255, 47, 255, 47, 255, 63, 255, 47, 255, 47, 255, 63, 255, 63, 255, 63, 255, 47, 0, 0, 255, 63, 0, 0, 255, 79, 255, 15, 255, 63, 255, 15, 255, 79, 255, 47, 255, 47, 255, 47, 255, 63, 255, 31, 255, 47, 255, 31, 255, 63, 255, 31, 255, 47, 255, 31, 255, 63, 255, 15, 255, 47, 255, 15, 255, 63, 255, 15, 255, 31, 255, 15, 255, 47, 0, 0, 255, 31, 0, 0, 255, 47, 255, 47, 255, 15, 255, 47, 255, 31, 255, 31, 255, 15, 255, 31, 255, 31, 255, 31, 255, 47, 255, 31, 255, 31, 255, 47, 255, 47, 255, 47, 255, 31, 0, 0, 255, 47, 0, 0, 255, 63, 255, 15, 255, 47, 255, 15, 255, 63, 255, 31, 255, 31, 255, 31, 255, 47, 255, 15, 255, 31, 255, 15, 255, 47, 255, 31, 255, 15, 255, 31, 255, 31, 255, 15, 255, 15, 255, 15, 255, 31, 255, 27, 255, 3, 255, 27, 255, 11, 255, 19, 255, 3, 255, 19, 255, 11, 255, 59, 255, 3, 255, 59, 255, 11, 255, 51, 255, 3, 255, 51, 255, 11, 255, 75, 255, 3, 255, 75, 255, 11, 255, 67, 255, 3, 255, 67, 255, 11, 255, 91, 255, 3, 255, 91, 255, 11, 255, 83, 255, 3, 255, 83, 255, 11, 255, 43, 255, 3, 255, 43, 255, 11, 255, 35, 255, 3, 255, 35, 255, 11, 255, 11, 255, 3, 255, 11, 255, 11, 255, 3, 255, 3, 255, 3, 255, 11),
"format": 34896613399,
"index_count": 108,
"index_data": PackedByteArray(0, 0, 1, 0, 2, 0, 2, 0, 1, 0, 3, 0, 4, 0, 5, 0, 6, 0, 6, 0, 5, 0, 7, 0, 8, 0, 9, 0, 10, 0, 10, 0, 9, 0, 11, 0, 12, 0, 13, 0, 14, 0, 14, 0, 13, 0, 15, 0, 16, 0, 17, 0, 18, 0, 18, 0, 17, 0, 19, 0, 20, 0, 21, 0, 22, 0, 22, 0, 21, 0, 23, 0, 24, 0, 25, 0, 26, 0, 26, 0, 25, 0, 27, 0, 28, 0, 29, 0, 30, 0, 30, 0, 29, 0, 31, 0, 32, 0, 33, 0, 34, 0, 34, 0, 33, 0, 35, 0, 36, 0, 37, 0, 38, 0, 38, 0, 37, 0, 39, 0, 40, 0, 41, 0, 42, 0, 42, 0, 41, 0, 43, 0, 44, 0, 45, 0, 46, 0, 46, 0, 45, 0, 47, 0, 48, 0, 49, 0, 50, 0, 50, 0, 49, 0, 51, 0, 52, 0, 53, 0, 54, 0, 54, 0, 53, 0, 55, 0, 56, 0, 57, 0, 58, 0, 58, 0, 57, 0, 59, 0, 60, 0, 61, 0, 62, 0, 62, 0, 61, 0, 63, 0, 64, 0, 65, 0, 66, 0, 66, 0, 65, 0, 67, 0, 68, 0, 69, 0, 70, 0, 70, 0, 69, 0, 71, 0),
"material": SubResource("StandardMaterial3D_0dxuf"),
"name": "cuboid",
"primitive": 3,
"uv_scale": Vector4(0, 0, 0, 0),
"vertex_count": 72,
"vertex_data": PackedByteArray(160, 1, 2, 248, 111, 255, 116, 197, 158, 79, 97, 192, 3, 179, 116, 197, 0, 0, 108, 249, 141, 233, 116, 197, 254, 77, 202, 193, 33, 157, 116, 197, 146, 4, 255, 255, 28, 234, 8, 205, 144, 82, 93, 200, 177, 157, 8, 205, 50, 6, 149, 254, 255, 255, 8, 205, 48, 84, 244, 198, 147, 179, 8, 205, 160, 1, 2, 248, 111, 255, 137, 191, 0, 0, 108, 249, 141, 233, 137, 191, 50, 6, 149, 254, 255, 255, 137, 191, 146, 4, 255, 255, 28, 234, 137, 191, 254, 77, 202, 193, 33, 157, 195, 45, 158, 79, 97, 192, 3, 179, 195, 45, 144, 82, 93, 200, 177, 157, 195, 45, 48, 84, 244, 198, 147, 179, 195, 45, 0, 0, 108, 249, 141, 233, 205, 251, 254, 77, 202, 193, 33, 157, 205, 251, 146, 4, 255, 255, 28, 234, 205, 251, 144, 82, 93, 200, 177, 157, 205, 251, 50, 6, 149, 254, 255, 255, 111, 168, 48, 84, 244, 198, 147, 179, 111, 168, 160, 1, 2, 248, 111, 255, 111, 168, 158, 79, 97, 192, 3, 179, 111, 168, 255, 255, 110, 248, 0, 0, 162, 198, 37, 183, 86, 180, 0, 0, 162, 198, 255, 255, 110, 248, 186, 22, 162, 198, 37, 183, 86, 180, 186, 22, 162, 198, 167, 250, 96, 254, 186, 22, 162, 198, 206, 177, 72, 186, 186, 22, 162, 198, 167, 250, 96, 254, 0, 0, 162, 198, 206, 177, 72, 186, 0, 0, 162, 198, 255, 255, 110, 248, 0, 0, 118, 232, 255, 255, 110, 248, 186, 22, 118, 232, 167, 250, 96, 254, 0, 0, 118, 232, 167, 250, 96, 254, 186, 22, 118, 232, 37, 183, 86, 180, 186, 22, 136, 23, 37, 183, 86, 180, 0, 0, 136, 23, 206, 177, 72, 186, 186, 22, 136, 23, 206, 177, 72, 186, 0, 0, 136, 23, 255, 255, 110, 248, 186, 22, 198, 161, 37, 183, 86, 180, 186, 22, 198, 161, 167, 250, 96, 254, 186, 22, 198, 161, 206, 177, 72, 186, 186, 22, 198, 161, 167, 250, 96, 254, 0, 0, 255, 255, 206, 177, 72, 186, 0, 0, 255, 255, 255, 255, 110, 248, 0, 0, 255, 255, 37, 183, 86, 180, 0, 0, 255, 255, 76, 140, 230, 241, 210, 56, 255, 191, 76, 140, 0, 0, 210, 56, 255, 191, 76, 140, 230, 241, 187, 147, 255, 191, 76, 140, 0, 0, 187, 147, 255, 191, 173, 108, 230, 241, 187, 147, 255, 191, 173, 108, 0, 0, 187, 147, 255, 191, 173, 108, 230, 241, 210, 56, 255, 191, 173, 108, 0, 0, 210, 56, 255, 191, 76, 140, 230, 241, 210, 56, 255, 191, 76, 140, 230, 241, 187, 147, 255, 191, 173, 108, 230, 241, 210, 56, 255, 191, 173, 108, 230, 241, 187, 147, 255, 191, 76, 140, 0, 0, 187, 147, 255, 191, 76, 140, 0, 0, 210, 56, 255, 191, 173, 108, 0, 0, 187, 147, 255, 191, 173, 108, 0, 0, 210, 56, 255, 191, 76, 140, 230, 241, 187, 147, 0, 128, 76, 140, 0, 0, 187, 147, 0, 128, 173, 108, 230, 241, 187, 147, 0, 128, 173, 108, 0, 0, 187, 147, 0, 128, 173, 108, 230, 241, 210, 56, 255, 255, 173, 108, 0, 0, 210, 56, 255, 255, 76, 140, 230, 241, 210, 56, 255, 255, 76, 140, 0, 0, 210, 56, 255, 255, 228, 60, 40, 213, 228, 60, 40, 213, 228, 60, 40, 213, 228, 60, 40, 213, 91, 191, 233, 22, 91, 191, 233, 22, 91, 191, 233, 22, 91, 191, 233, 22, 228, 224, 29, 198, 228, 224, 29, 198, 228, 224, 29, 198, 228, 224, 29, 198, 224, 33, 28, 67, 224, 33, 28, 67, 224, 33, 28, 67, 224, 33, 28, 67, 13, 88, 255, 204, 13, 88, 255, 204, 13, 88, 255, 204, 13, 88, 255, 204, 99, 10, 126, 25, 99, 10, 126, 25, 99, 10, 126, 25, 99, 10, 126, 25, 10, 98, 234, 59, 10, 98, 234, 59, 10, 98, 234, 59, 10, 98, 234, 59, 244, 157, 20, 196, 244, 157, 20, 196, 244, 157, 20, 196, 244, 157, 20, 196, 117, 52, 21, 23, 117, 52, 21, 23, 117, 52, 21, 23, 117, 52, 21, 23, 137, 203, 233, 232, 137, 203, 233, 232, 137, 203, 233, 232, 137, 203, 233, 232, 255, 127, 255, 127, 255, 127, 255, 127, 255, 127, 255, 127, 255, 127, 255, 127, 27, 167, 226, 216, 27, 167, 226, 216, 27, 167, 226, 216, 27, 167, 226, 216, 255, 127, 0, 0, 255, 127, 0, 0, 255, 127, 0, 0, 255, 127, 0, 0, 255, 127, 255, 255, 255, 127, 255, 255, 255, 127, 255, 255, 255, 127, 255, 255, 255, 255, 255, 127, 255, 255, 255, 127, 255, 255, 255, 127, 255, 255, 255, 127, 0, 0, 255, 127, 0, 0, 255, 127, 0, 0, 255, 127, 0, 0, 255, 127, 255, 127, 255, 255, 255, 127, 255, 255, 255, 127, 255, 255, 255, 127, 255, 255, 255, 127, 255, 255, 255, 127, 255, 255, 255, 127, 255, 255, 255, 127, 255, 255)
}]
blend_shape_mode = 0
