[gd_resource type="TileSet" load_steps=3 format=3 uid="uid://godj2je2tq8b"]

[ext_resource type="Texture2D" uid="uid://1klfw2xojpby" path="res://assets/isometricSandbox/isometric-sandbox-sheet.png" id="1_bbiq6"]

[sub_resource type="TileSetAtlasSource" id="TileSetAtlasSource_ajbnt"]
resource_name = "Sandbox"
texture = ExtResource("1_bbiq6")
texture_region_size = Vector2i(32, 32)
use_texture_padding = false
0:0/0 = 0
0:0/0/modulate = Color(0.899495, 0.889875, 0.899893, 1)
1:0/0 = 0
2:0/0 = 0
3:0/0 = 0
4:0/0 = 0
5:0/0 = 0
5:1/0 = 0
4:1/0 = 0
3:1/0 = 0
2:1/0 = 0
1:1/0 = 0
0:1/0 = 0
0:2/0 = 0
1:2/0 = 0
2:2/0 = 0
3:2/0 = 0
4:2/0 = 0
5:2/0 = 0
5:3/0 = 0
4:3/0 = 0
3:3/0 = 0
2:3/0 = 0
1:3/0 = 0
0:3/0 = 0
0:4/0 = 0
1:4/0 = 0
2:4/0 = 0
3:4/0 = 0
4:4/0 = 0
5:4/0 = 0
5:5/0 = 0
4:5/0 = 0
3:5/0 = 0
2:5/0 = 0
1:5/0 = 0
0:5/0 = 0
0:6/0 = 0
1:6/0 = 0
2:6/0 = 0
3:6/0 = 0
4:6/0 = 0
5:6/0 = 0
5:7/0 = 0
4:7/0 = 0
3:7/0 = 0
2:7/0 = 0
1:7/0 = 0
0:7/0 = 0
0:8/0 = 0
1:8/0 = 0
2:8/0 = 0
3:8/0 = 0
4:8/0 = 0
5:8/0 = 0

[resource]
tile_shape = 1
tile_size = Vector2i(32, 16)
uv_clipping = true
sources/0 = SubResource("TileSetAtlasSource_ajbnt")
