[gd_scene load_steps=3 format=3 uid="uid://ccbxgpofh1eff"]

[ext_resource type="PackedScene" uid="uid://emb7n7ijglnh" path="res://project/tile_map.tscn" id="1_m7jxu"]

[sub_resource type="OccluderPolygon2D" id="OccluderPolygon2D_18ouc"]
polygon = PackedVector2Array(-24, 16, 251, 15, 249, -32, -25, -32)

[node name="Node2D" type="Node2D"]

[node name="TileMap" parent="." instance=ExtResource("1_m7jxu")]
position = Vector2(-19, -32)
layer_0/y_sort_origin = 0
layer_0/tile_data = PackedInt32Array(0, 0, 0, 65536, 0, 0, 1, 0, 0, -131072, 0, 0, -1, 0, 0, 65535, 0, 0, 131071, 0, 0, 196608, 0, 0, 131073, 0, 0, 65537, 0, 0, 2, 0, 0, -65535, 0, 0, -131071, 0, 0, -196607, 0, 0, -262143, 0, 0, -196608, 0, 0, -131073, 0, 0, -65537, 0, 0, 196607, 0, 0, 262144, 0, 0, 327680, 0, 0, 262145, 0, 0, 196609, 0, 0, 131074, 0, 0, 65538, 0, 0, -131070, 0, 0, -262144, 0, 0, -196609, 0, 0, -131074, 0, 0, -65538, 0, 0, -3, 0, 0, 65533, 0, 0, 131069, 0, 0, 196606, 0, 0, 262142, 0, 0, 327679, 0, 0, 65534, 0, 0, 131070, 0, 0, -2, 0, 0, -65536, 0, 0, 393217, 131072, 0, 131072, 0, 0, 262143, 0, 0, 393215, 65536, 0, 393214, 65536, 0, 327678, 65536, 0, 262141, 65536, 0, 196605, 65536, 0, 131068, 65536, 0, 393216, 65536, 0, 327681, 262144, 1, 262146, 262144, 1, 196610, 262144, 1, 131075, 262144, 1)
layer_1/name = "Middle"
layer_1/y_sort_enabled = true
layer_1/y_sort_origin = 1
layer_1/z_index = 1
layer_1/tile_data = PackedInt32Array(196608, 131072, 0, 131072, 0, 0, 131071, 0, 0, 0, 0, 0, -65536, 0, 0, 1, 0, 0, 65536, 0, 0, -131072, 0, 0, -1, 0, 0, 65535, 0, 0)

[node name="Node2D" type="Node2D" parent="TileMap"]
light_mask = 3
visibility_layer = 3
y_sort_enabled = true
position = Vector2(-66, 67)

[node name="LightOccluder2D" type="LightOccluder2D" parent="TileMap/Node2D"]
y_sort_enabled = true
position = Vector2(7, -60)
occluder = SubResource("OccluderPolygon2D_18ouc")

[node name="LightOccluder2D2" type="LightOccluder2D" parent="TileMap/Node2D"]
show_behind_parent = true
z_index = 1
y_sort_enabled = true
position = Vector2(-54, -25)
occluder = SubResource("OccluderPolygon2D_18ouc")

[node name="DirectionalLight2D" type="DirectionalLight2D" parent="."]
position = Vector2(97, 99)
color = Color(0.892508, 0.914862, 0.902173, 1)
shadow_enabled = true

[node name="Camera2D" type="Camera2D" parent="."]
position = Vector2(-9, -12)
zoom = Vector2(2.73, 2.73)
