[gd_resource type="TileSet" load_steps=3 format=3 uid="uid://dppa0h4tru582"]

[ext_resource type="Texture2D" uid="uid://00y0nwj4rdoc" path="res://assets/Kenney-Tinyski/Tilemap/tilemap_packed.png" id="1_5mkja"]

[sub_resource type="TileSetAtlasSource" id="TileSetAtlasSource_r5ijl"]
resource_name = "Ski"
texture = ExtResource("1_5mkja")
0:0/next_alternative_id = 3
0:0/0 = 0
0:0/0/terrain_set = 0
0:0/0/terrain = 1
0:0/0/terrains_peering_bit/right_side = 1
0:0/0/terrains_peering_bit/bottom_right_corner = 1
0:0/0/terrains_peering_bit/bottom_side = 1
0:0/0/terrains_peering_bit/bottom_left_corner = 1
0:0/0/terrains_peering_bit/left_side = 1
0:0/0/terrains_peering_bit/top_left_corner = 1
0:0/0/terrains_peering_bit/top_side = 1
0:0/0/terrains_peering_bit/top_right_corner = 1
1:0/next_alternative_id = 3
1:0/0 = 0
1:0/0/terrain_set = 0
1:0/0/terrain = 1
1:0/0/terrains_peering_bit/right_side = 0
1:0/0/terrains_peering_bit/bottom_right_corner = 0
1:0/0/terrains_peering_bit/bottom_side = 1
1:0/0/terrains_peering_bit/bottom_left_corner = 1
1:0/0/terrains_peering_bit/left_side = 1
1:0/0/terrains_peering_bit/top_left_corner = 1
1:0/0/terrains_peering_bit/top_side = 1
1:0/0/terrains_peering_bit/top_right_corner = 0
1:0/2 = 2
1:0/2/transpose = true
1:0/2/terrain_set = 0
1:0/2/terrain = 1
1:0/2/terrains_peering_bit/right_side = 1
1:0/2/terrains_peering_bit/bottom_right_corner = 0
1:0/2/terrains_peering_bit/bottom_side = 0
1:0/2/terrains_peering_bit/bottom_left_corner = 0
1:0/2/terrains_peering_bit/left_side = 1
1:0/2/terrains_peering_bit/top_left_corner = 1
1:0/2/terrains_peering_bit/top_side = 1
1:0/2/terrains_peering_bit/top_right_corner = 1
2:0/next_alternative_id = 2
2:0/0 = 0
2:0/0/terrain_set = 0
2:0/0/terrain = 0
2:0/0/terrains_peering_bit/right_side = 0
2:0/0/terrains_peering_bit/bottom_right_corner = 0
2:0/0/terrains_peering_bit/bottom_side = 0
2:0/0/terrains_peering_bit/bottom_left_corner = 0
2:0/0/terrains_peering_bit/left_side = 0
2:0/0/terrains_peering_bit/top_left_corner = 0
2:0/0/terrains_peering_bit/top_side = 0
2:0/0/terrains_peering_bit/top_right_corner = 0
3:0/next_alternative_id = 2
3:0/0 = 0
3:0/0/terrain_set = 0
3:0/0/terrain = 0
3:0/0/terrains_peering_bit/right_side = 0
3:0/0/terrains_peering_bit/bottom_right_corner = 0
3:0/0/terrains_peering_bit/bottom_side = 0
3:0/0/terrains_peering_bit/bottom_left_corner = 0
3:0/0/terrains_peering_bit/left_side = 0
3:0/0/terrains_peering_bit/top_left_corner = 0
3:0/0/terrains_peering_bit/top_side = 0
3:0/0/terrains_peering_bit/top_right_corner = 0
4:0/next_alternative_id = 3
4:0/0 = 0
4:0/0/terrain_set = 0
4:0/0/terrain = 1
4:0/0/terrains_peering_bit/right_side = 1
4:0/0/terrains_peering_bit/bottom_right_corner = 1
4:0/0/terrains_peering_bit/bottom_side = 1
4:0/0/terrains_peering_bit/bottom_left_corner = 0
4:0/0/terrains_peering_bit/left_side = 0
4:0/0/terrains_peering_bit/top_left_corner = 0
4:0/0/terrains_peering_bit/top_side = 1
4:0/0/terrains_peering_bit/top_right_corner = 1
4:0/2 = 2
4:0/2/transpose = true
4:0/2/terrain_set = 0
4:0/2/terrain = 1
4:0/2/terrains_peering_bit/right_side = 1
4:0/2/terrains_peering_bit/bottom_right_corner = 1
4:0/2/terrains_peering_bit/bottom_side = 1
4:0/2/terrains_peering_bit/bottom_left_corner = 1
4:0/2/terrains_peering_bit/left_side = 1
4:0/2/terrains_peering_bit/top_left_corner = 0
4:0/2/terrains_peering_bit/top_side = 0
4:0/2/terrains_peering_bit/top_right_corner = 0
5:0/next_alternative_id = 2
5:0/0 = 0
5:0/0/terrain_set = 0
5:0/0/terrain = 1
5:0/0/terrains_peering_bit/right_side = 1
5:0/0/terrains_peering_bit/bottom_right_corner = 1
5:0/0/terrains_peering_bit/bottom_side = 1
5:0/0/terrains_peering_bit/bottom_left_corner = 1
5:0/0/terrains_peering_bit/left_side = 1
5:0/0/terrains_peering_bit/top_left_corner = 1
5:0/0/terrains_peering_bit/top_side = 1
5:0/0/terrains_peering_bit/top_right_corner = 1
5:1/next_alternative_id = 2
5:1/0 = 0
5:1/0/terrain_set = 0
4:1/next_alternative_id = 2
4:1/0 = 0
4:1/0/terrain_set = 0
3:1/next_alternative_id = 2
3:1/0 = 0
3:1/0/terrain_set = 0
2:1/next_alternative_id = 2
2:1/0 = 0
2:1/0/terrain_set = 0
1:1/next_alternative_id = 2
1:1/0 = 0
1:1/0/terrain_set = 0
0:1/next_alternative_id = 2
0:1/0 = 0
0:1/0/terrain_set = 0
0:2/next_alternative_id = 2
0:2/0 = 0
0:2/0/terrain_set = 0
1:2/next_alternative_id = 2
1:2/0 = 0
1:2/0/terrain_set = 0
2:2/next_alternative_id = 2
2:2/0 = 0
2:2/0/terrain_set = 0
2:2/0/terrain = 0
2:2/0/terrains_peering_bit/right_side = 0
2:2/0/terrains_peering_bit/bottom_right_corner = 0
2:2/0/terrains_peering_bit/bottom_side = 0
2:2/0/terrains_peering_bit/bottom_left_corner = 0
2:2/0/terrains_peering_bit/left_side = 0
2:2/0/terrains_peering_bit/top_left_corner = 0
2:2/0/terrains_peering_bit/top_side = 0
2:2/0/terrains_peering_bit/top_right_corner = 0
3:2/next_alternative_id = 2
3:2/0 = 0
3:2/0/terrain_set = 0
3:2/0/terrain = 0
3:2/0/terrains_peering_bit/right_side = 0
3:2/0/terrains_peering_bit/bottom_right_corner = 0
3:2/0/terrains_peering_bit/bottom_side = 0
3:2/0/terrains_peering_bit/bottom_left_corner = 0
3:2/0/terrains_peering_bit/left_side = 0
3:2/0/terrains_peering_bit/top_left_corner = 0
3:2/0/terrains_peering_bit/top_side = 0
3:2/0/terrains_peering_bit/top_right_corner = 0
4:2/next_alternative_id = 2
4:2/0 = 0
4:2/0/terrain_set = 0
5:2/next_alternative_id = 2
5:2/0 = 0
5:2/0/terrain_set = 0
4:3/next_alternative_id = 2
4:3/0 = 0
4:3/0/terrain_set = 0
3:3/next_alternative_id = 2
3:3/0 = 0
3:3/0/terrain_set = 0
3:3/0/terrain = 0
3:3/0/terrains_peering_bit/right_side = 0
3:3/0/terrains_peering_bit/bottom_right_corner = 0
3:3/0/terrains_peering_bit/bottom_side = 0
3:3/0/terrains_peering_bit/bottom_left_corner = 0
3:3/0/terrains_peering_bit/left_side = 0
3:3/0/terrains_peering_bit/top_left_corner = 0
3:3/0/terrains_peering_bit/top_side = 0
3:3/0/terrains_peering_bit/top_right_corner = 0
2:3/next_alternative_id = 2
2:3/0 = 0
2:3/0/terrain_set = 0
2:3/0/terrain = 0
2:3/0/terrains_peering_bit/right_side = 0
2:3/0/terrains_peering_bit/bottom_right_corner = 0
2:3/0/terrains_peering_bit/bottom_side = 0
2:3/0/terrains_peering_bit/bottom_left_corner = 0
2:3/0/terrains_peering_bit/left_side = 0
2:3/0/terrains_peering_bit/top_left_corner = 0
2:3/0/terrains_peering_bit/top_side = 0
2:3/0/terrains_peering_bit/top_right_corner = 0
1:3/next_alternative_id = 2
1:3/0 = 0
1:3/0/terrain_set = 0
1:4/next_alternative_id = 2
1:4/0 = 0
1:4/0/terrain_set = 0
2:4/next_alternative_id = 2
2:4/0 = 0
2:4/0/terrain_set = 0
3:4/next_alternative_id = 2
3:4/0 = 0
3:4/0/terrain_set = 0
4:4/next_alternative_id = 2
4:4/0 = 0
4:4/0/terrain_set = 0
4:5/next_alternative_id = 2
4:5/0 = 0
4:5/0/terrain_set = 0
4:5/0/terrain = 0
4:5/0/terrains_peering_bit/right_side = 1
4:5/0/terrains_peering_bit/bottom_right_corner = 0
4:5/0/terrains_peering_bit/bottom_side = 0
4:5/0/terrains_peering_bit/bottom_left_corner = 0
4:5/0/terrains_peering_bit/left_side = 0
4:5/0/terrains_peering_bit/top_left_corner = 0
4:5/0/terrains_peering_bit/top_side = 1
4:5/0/terrains_peering_bit/top_right_corner = 1
4:6/next_alternative_id = 2
4:6/0 = 0
4:6/0/terrain_set = 0
4:6/0/terrain = 0
4:6/0/terrains_peering_bit/right_side = 1
4:6/0/terrains_peering_bit/bottom_right_corner = 1
4:6/0/terrains_peering_bit/bottom_side = 1
4:6/0/terrains_peering_bit/bottom_left_corner = 0
4:6/0/terrains_peering_bit/left_side = 0
4:6/0/terrains_peering_bit/top_left_corner = 0
4:6/0/terrains_peering_bit/top_side = 0
4:6/0/terrains_peering_bit/top_right_corner = 0
5:6/next_alternative_id = 2
5:6/0 = 0
5:6/0/terrain_set = 0
5:6/0/terrain = 1
5:6/0/terrains_peering_bit/right_side = 1
5:6/0/terrains_peering_bit/bottom_right_corner = 1
5:6/0/terrains_peering_bit/bottom_side = 1
5:6/0/terrains_peering_bit/bottom_left_corner = 1
5:6/0/terrains_peering_bit/left_side = 1
5:6/0/terrains_peering_bit/top_left_corner = 0
5:6/0/terrains_peering_bit/top_side = 1
5:6/0/terrains_peering_bit/top_right_corner = 1
5:5/next_alternative_id = 2
5:5/0 = 0
5:5/0/terrain_set = 0
5:5/0/terrain = 1
5:5/0/terrains_peering_bit/right_side = 1
5:5/0/terrains_peering_bit/bottom_right_corner = 1
5:5/0/terrains_peering_bit/bottom_side = 1
5:5/0/terrains_peering_bit/bottom_left_corner = 0
5:5/0/terrains_peering_bit/left_side = 1
5:5/0/terrains_peering_bit/top_left_corner = 1
5:5/0/terrains_peering_bit/top_side = 1
5:5/0/terrains_peering_bit/top_right_corner = 1
1:5/next_alternative_id = 2
1:5/0 = 0
1:5/0/terrain_set = 0
1:5/0/terrain = 0
1:5/0/terrains_peering_bit/right_side = 0
1:5/0/terrains_peering_bit/bottom_right_corner = 0
1:5/0/terrains_peering_bit/bottom_side = 0
1:5/0/terrains_peering_bit/bottom_left_corner = 0
1:5/0/terrains_peering_bit/left_side = 1
1:5/0/terrains_peering_bit/top_left_corner = 1
1:5/0/terrains_peering_bit/top_side = 1
1:5/0/terrains_peering_bit/top_right_corner = 0
0:5/next_alternative_id = 2
0:5/0 = 0
0:5/0/terrain_set = 0
0:5/0/terrain = 1
0:5/0/terrains_peering_bit/right_side = 1
0:5/0/terrains_peering_bit/bottom_right_corner = 0
0:5/0/terrains_peering_bit/bottom_side = 1
0:5/0/terrains_peering_bit/bottom_left_corner = 1
0:5/0/terrains_peering_bit/left_side = 1
0:5/0/terrains_peering_bit/top_left_corner = 1
0:5/0/terrains_peering_bit/top_side = 1
0:5/0/terrains_peering_bit/top_right_corner = 1
0:6/next_alternative_id = 2
0:6/0 = 0
0:6/0/terrain_set = 0
0:6/0/terrain = 1
0:6/0/terrains_peering_bit/right_side = 1
0:6/0/terrains_peering_bit/bottom_right_corner = 1
0:6/0/terrains_peering_bit/bottom_side = 1
0:6/0/terrains_peering_bit/bottom_left_corner = 1
0:6/0/terrains_peering_bit/left_side = 1
0:6/0/terrains_peering_bit/top_left_corner = 1
0:6/0/terrains_peering_bit/top_side = 1
0:6/0/terrains_peering_bit/top_right_corner = 0
1:6/next_alternative_id = 2
1:6/0 = 0
1:6/0/terrain_set = 0
1:6/0/terrain = 0
1:6/0/terrains_peering_bit/right_side = 0
1:6/0/terrains_peering_bit/bottom_right_corner = 0
1:6/0/terrains_peering_bit/bottom_side = 1
1:6/0/terrains_peering_bit/bottom_left_corner = 1
1:6/0/terrains_peering_bit/left_side = 1
1:6/0/terrains_peering_bit/top_left_corner = 0
1:6/0/terrains_peering_bit/top_side = 0
1:6/0/terrains_peering_bit/top_right_corner = 0
6:0/0 = 0
7:0/0 = 0
8:0/0 = 0
9:0/0 = 0
10:0/0 = 0
11:0/0 = 0
6:1/0 = 0
7:1/0 = 0
8:1/0 = 0
9:1/0 = 0
10:1/0 = 0
11:1/0 = 0
6:2/0 = 0
7:2/0 = 0
8:2/0 = 0
9:2/0 = 0
10:2/0 = 0
11:2/0 = 0
0:3/next_alternative_id = 2
0:3/0 = 0
5:3/next_alternative_id = 2
5:3/0 = 0
6:3/0 = 0
7:3/0 = 0
8:3/0 = 0
9:3/0 = 0
10:3/0 = 0
11:3/0 = 0
0:4/next_alternative_id = 2
0:4/0 = 0
5:4/next_alternative_id = 2
5:4/0 = 0
6:4/0 = 0
7:4/0 = 0
8:4/0 = 0
9:4/0 = 0
10:4/0 = 0
11:4/0 = 0
2:5/next_alternative_id = 2
2:5/0 = 0
3:5/next_alternative_id = 2
3:5/0 = 0
6:5/0 = 0
7:5/0 = 0
8:5/0 = 0
9:5/0 = 0
10:5/0 = 0
11:5/0 = 0
2:6/next_alternative_id = 2
2:6/0 = 0
3:6/next_alternative_id = 2
3:6/0 = 0
6:6/0 = 0
7:6/0 = 0
8:6/0 = 0
9:6/0 = 0
10:6/0 = 0
11:6/0 = 0
0:7/0 = 0
1:7/0 = 0
2:7/0 = 0
3:7/0 = 0
4:7/0 = 0
5:7/0 = 0
6:7/0 = 0
7:7/0 = 0
8:7/0 = 0
9:7/0 = 0
10:7/0 = 0
11:7/0 = 0
0:8/0 = 0
1:8/0 = 0
2:8/0 = 0
3:8/0 = 0
4:8/0 = 0
5:8/0 = 0
6:8/0 = 0
7:8/0 = 0
8:8/0 = 0
9:8/0 = 0
10:8/0 = 0
11:8/0 = 0
0:9/0 = 0
1:9/0 = 0
2:9/0 = 0
3:9/0 = 0
4:9/0 = 0
5:9/0 = 0
6:9/0 = 0
7:9/0 = 0
8:9/0 = 0
9:9/0 = 0
10:9/0 = 0
11:9/0 = 0
0:10/0 = 0
1:10/0 = 0
2:10/0 = 0
3:10/0 = 0
4:10/0 = 0
5:10/0 = 0
6:10/0 = 0
7:10/0 = 0
8:10/0 = 0
9:10/0 = 0
10:10/0 = 0
11:10/0 = 0

[resource]
terrain_set_0/mode = 0
terrain_set_0/terrain_0/name = "Ice terrain"
terrain_set_0/terrain_0/color = Color(0.588235, 1, 1, 1)
terrain_set_0/terrain_1/name = "snow"
terrain_set_0/terrain_1/color = Color(0.403922, 0.109804, 1, 1)
sources/1 = SubResource("TileSetAtlasSource_r5ijl")
